id,x,y,z
1,,-0.23757803976243705,0.1501504845072486
2,-0.7158631158385148,,1.8778544573367681
3,1.3791141262502453,-1.1984546594865972,0.528666339420815
4,,-1.3939109042462783,-1.1214688382376792
5,1.8374687166475143,-0.699979141588661,1.6591798745665456
6,,-0.20745627191682262,0.15512596903731551
7,0.17349859733256,-1.24774165802538,0.8208491583037483
8,0.6101377498452317,-0.35439018761582675,1.5876752264101597
9,-0.07636653915008897,1.2455456702621803,-0.8835012575151013
10,1.5417707043361812,-0.30736462494468214,